{
  "battleship": {
    "type": "battleship",
    "imgUrl": "./assets/images/four.png",
    "length": 4,
    "qt": 1
  },
  "cruiser": {
    "type": "cruiser",
    "imgUrl":  "./assets/images/three.png",
    "length": 3,
    "qt": 2
  },
  "destroyer": {
    "type": "destroyer",
    "imgUrl":  "./assets/images/two.png",
    "length": 2,
    "qt": 3
  },
  "torpedoBoat": {
    "type": "torpedoBoat",
    "imgUrl":  "./assets/images/one.png",
    "length": 1,
    "qt": 4
  }
}
